…
map_df(ls_data, check_for_gaps, .id = "hashtag")
```

    ## Column `date` is the index.

    ## Warning: `list_len()` is soft-deprecated as of rlang 0.2.0.
    ## Please use `new_list()` instead
    ## This warning is displayed once per session.

    ## Column `date` is the index.

    ## # A tibble: 30 x 4
    ##    hashtag     .from      .to           .n
    ##    <chr>       <date>     <date>     <int>
    ##  1 TidyTuesday 2018-05-06 2018-05-06     1
    ##  2 TidyTuesday 2018-05-20 2018-05-20     1
    ##  3 TidyTuesday 2018-06-17 2018-06-17     1
    ##  4 TidyTuesday 2018-07-08 2018-07-08     1
    ##  5 TidyTuesday 2018-07-27 2018-07-29     3
    ##  6 TidyTuesday 2018-08-18 2018-08-18     1
    ##  7 TidyTuesday 2018-08-26 2018-08-27     2
    ##  8 TidyTuesday 2018-09-01 2018-09-01     1
    ##  9 TidyTuesday 2018-09-08 2018-09-08     1
    ## 10 TidyTuesday 2018-09-29 2018-09-29     1
    ## # ... with 20 more rows
…
``` r
tidied_ts <- tidied %>% 
  filter(source_filter & reply_filter & photos_only) %>% 
  count(date = round_date(created_at, "day")) %>% 
  mutate(id = "id", 
         date = as_date(date)) %>%
  as_tsibble(key = id(id), index = date, regular = TRUE) 

tidied_ts %>% 
  count_gaps()
```

    ## # A tibble: 42 x 4
    ##    id    .from      .to           .n
    ##    <chr> <date>     <date>     <int>
    ##  1 id    2018-04-06 2018-04-06     1
    ##  2 id    2018-04-09 2018-04-09     1
    ##  3 id    2018-04-13 2018-04-13     1
    ##  4 id    2018-04-15 2018-04-15     1
    ##  5 id    2018-04-23 2018-04-23     1
    ##  6 id    2018-04-28 2018-04-28     1
    ##  7 id    2018-05-05 2018-05-06     2
    ##  8 id    2018-05-13 2018-05-13     1
    ##  9 id    2018-05-20 2018-05-20     1
    ## 10 id    2018-05-26 2018-05-26     1
    ## # ... with 32 more rows
…
