…
        Downloading file 1 of 2: `reputation.csv`
        Downloading file 2 of 2: `poll.csv`

    --- Download complete ---

``` r
poll <- tuesdata$poll
```

``` r
poll 
```

    # A tibble: 500 × 8
       company      industry `2022_rank` `2022_rq` change  year  rank    rq
       <chr>        <chr>          <dbl>     <dbl>  <dbl> <dbl> <dbl> <dbl>
     1 Trader Joe's Retail             1      82.4     NA  2017    NA  NA  
     2 Trader Joe's Retail             1      82.4     NA  2018    NA  NA  
     3 Trader Joe's Retail             1      82.4     NA  2019    NA  78.2
     4 Trader Joe's Retail             1      82.4     NA  2020    NA  80.7
     5 Trader Joe's Retail             1      82.4     NA  2021    NA  NA  
     6 HEB Grocery  Retail             2      82       NA  2017    NA  NA  
     7 HEB Grocery  Retail             2      82       NA  2018    NA  81.1
     8 HEB Grocery  Retail             2      82       NA  2019    NA  82.5
     9 HEB Grocery  Retail             2      82       NA  2020    NA  83.1
    10 HEB Grocery  Retail             2      82       NA  2021    NA  NA  
    # … with 490 more rows
…
    Storing counts in `nn`, as `n` already present in input
    ℹ Use `name = "new_name"` to pick a new name.

    # A tibble: 1 × 2
          n    nn
      <int> <int>
    1     1   100

``` r
poll |> 
  distinct(company, change) |> 
  count(change)
```

    # A tibble: 41 × 2
       change     n
        <dbl> <int>
     1    -71     1
     2    -37     1
     3    -28     1
     4    -27     1
     5    -24     1
     6    -20     1
     7    -18     1
     8    -17     3
     9    -13     2
    10    -12     2
    # … with 31 more rows
…
